…
```r
(ov_cor <- gapminder %$%
  cor(year, lifeExp))
#> [1] 0.4356112
(gcor <- gapminder %>%
  group_by(country) %>%
  summarize(correlation = cor(year, lifeExp)))
#> # A tibble: 142 × 2
#>        country correlation
#>         <fctr>       <dbl>
#> 1  Afghanistan   0.9735051
#> 2      Albania   0.9542420
#> 3      Algeria   0.9925307
#> 4       Angola   0.9422392
#> 5    Argentina   0.9977816
#> 6    Australia   0.9897716
#> 7      Austria   0.9960592
#> 8      Bahrain   0.9832293
#> 9   Bangladesh   0.9946662
#> 10     Belgium   0.9972665
#> # ... with 132 more rows
…
We are ready to scale up to __all countries__ by placing this function inside a `dplyr::do()` call.


```r
gfits_me <- gapminder %>%
  group_by(country) %>% 
  do(le_lin_fit(.))
gfits_me
#> Source: local data frame [142 x 3]
#> Groups: country [142]
#> 
#>        country intercept     slope
#>         <fctr>     <dbl>     <dbl>
#> 1  Afghanistan  29.90729 0.2753287
#> 2      Albania  59.22913 0.3346832
#> 3      Algeria  43.37497 0.5692797
#> 4       Angola  32.12665 0.2093399
#> 5    Argentina  62.68844 0.2317084
#> 6    Australia  68.40051 0.2277238
#> 7      Austria  66.44846 0.2419923
#> 8      Bahrain  52.74921 0.4675077
#> 9   Bangladesh  36.13549 0.4981308
#> 10     Belgium  67.89192 0.2090846
#> # ... with 132 more rows
```
…
```r
## install.packages("broom")
library(broom)
```

Watch how easy it is to get fitted model results:


```r
gfits_broom <- gapminder %>%
  group_by(country, continent) %>% 
  do(tidy(lm(lifeExp ~ I(year - 1952), data = .)))
gfits_broom 
#> Source: local data frame [284 x 7]
#> Groups: country, continent [142]
#> 
#>        country continent           term   estimate   std.error  statistic
#>         <fctr>    <fctr>          <chr>      <dbl>       <dbl>      <dbl>
#> 1  Afghanistan      Asia    (Intercept) 29.9072949 0.663999539  45.041138
#> 2  Afghanistan      Asia I(year - 1952)  0.2753287 0.020450934  13.462890
#> 3      Albania    Europe    (Intercept) 59.2291282 1.076844032  55.002513
#> 4      Albania    Europe I(year - 1952)  0.3346832 0.033166387  10.091036
#> 5      Algeria    Africa    (Intercept) 43.3749744 0.718420236  60.375491
#> 6      Algeria    Africa I(year - 1952)  0.5692797 0.022127070  25.727749
#> 7       Angola    Africa    (Intercept) 32.1266538 0.764035493  42.048641
#> 8       Angola    Africa I(year - 1952)  0.2093399 0.023532003   8.895964
#> 9    Argentina  Americas    (Intercept) 62.6884359 0.158728938 394.940184
#> 10   Argentina  Americas I(year - 1952)  0.2317084 0.004888791  47.395847
#> # ... with 274 more rows, and 1 more variables: p.value <dbl>
```

The default tidier for `lm` objects produces a data.frame summary of estimated coefficients and results related to statistical inference, e.g., p-value. Note that we get two rows per country, versus the one row per country we produced above. It's a nice illustration of the meaning of *tidy data*. The `broom` treatment is more tidy and a better idea, in the long run.

If we want to use some other `broom` functions for working with models, it's convenient if we store the fits first.


```r
fits <- gapminder %>% 
  group_by(country, continent) %>%
  do(fit = lm(lifeExp ~ I(year - 1952), .))
fits
#> Source: local data frame [142 x 3]
#> Groups: <by row>
#> 
#> # A tibble: 142 × 3
#>        country continent      fit
#> *       <fctr>    <fctr>   <list>
#> 1  Afghanistan      Asia <S3: lm>
#> 2      Albania    Europe <S3: lm>
#> 3      Algeria    Africa <S3: lm>
#> 4       Angola    Africa <S3: lm>
#> 5    Argentina  Americas <S3: lm>
#> 6    Australia   Oceania <S3: lm>
#> 7      Austria    Europe <S3: lm>
#> 8      Bahrain      Asia <S3: lm>
#> 9   Bangladesh      Asia <S3: lm>
#> 10     Belgium    Europe <S3: lm>
#> # ... with 132 more rows
```

Now we have a data.frame that is grouped "by row" (vs. by some factor) with a `fit` list-column that holds one fitted linear model for each country. We can apply various functions from `broom` to get tidy results back out. As data.frames. Yay.


```r
## one row per country, overall model stuff
fits %>% 
  glance(fit)
#> Source: local data frame [142 x 13]
#> Groups: country, continent [142]
#> 
#>        country continent r.squared adj.r.squared     sigma  statistic
#>         <fctr>    <fctr>     <dbl>         <dbl>     <dbl>      <dbl>
#> 1  Afghanistan      Asia 0.9477123     0.9424835 1.2227880  181.24941
#> 2      Albania    Europe 0.9105778     0.9016355 1.9830615  101.82901
#> 3      Algeria    Africa 0.9851172     0.9836289 1.3230064  661.91709
#> 4       Angola    Africa 0.8878146     0.8765961 1.4070091   79.13818
#> 5    Argentina  Americas 0.9955681     0.9951249 0.2923072 2246.36635
#> 6    Australia   Oceania 0.9796477     0.9776125 0.6206086  481.34586
#> 7      Austria    Europe 0.9921340     0.9913474 0.4074094 1261.29629
#> 8      Bahrain      Asia 0.9667398     0.9634138 1.6395865  290.65974
#> 9   Bangladesh      Asia 0.9893609     0.9882970 0.9766908  929.92637
#> 10     Belgium    Europe 0.9945406     0.9939946 0.2929025 1821.68840
#> # ... with 132 more rows, and 7 more variables: p.value <dbl>, df <int>,
#> #   logLik <dbl>, AIC <dbl>, BIC <dbl>, deviance <dbl>, df.residual <int>
## one row per country per parameter estimate, statistical inference stuff
fits %>% 
  tidy(fit)
#> Source: local data frame [284 x 7]
#> Groups: country, continent [142]
#> 
#>        country continent           term   estimate   std.error  statistic
#>         <fctr>    <fctr>          <chr>      <dbl>       <dbl>      <dbl>
#> 1  Afghanistan      Asia    (Intercept) 29.9072949 0.663999539  45.041138
#> 2  Afghanistan      Asia I(year - 1952)  0.2753287 0.020450934  13.462890
#> 3      Albania    Europe    (Intercept) 59.2291282 1.076844032  55.002513
#> 4      Albania    Europe I(year - 1952)  0.3346832 0.033166387  10.091036
#> 5      Algeria    Africa    (Intercept) 43.3749744 0.718420236  60.375491
#> 6      Algeria    Africa I(year - 1952)  0.5692797 0.022127070  25.727749
#> 7       Angola    Africa    (Intercept) 32.1266538 0.764035493  42.048641
#> 8       Angola    Africa I(year - 1952)  0.2093399 0.023532003   8.895964
#> 9    Argentina  Americas    (Intercept) 62.6884359 0.158728938 394.940184
#> 10   Argentina  Americas I(year - 1952)  0.2317084 0.004888791  47.395847
#> # ... with 274 more rows, and 1 more variables: p.value <dbl>
## one row per original observation, giving fitted value, residual, etc.
fits %>% 
  augment(fit)
#> Source: local data frame [1,704 x 11]
#> Groups: country, continent [142]
#> 
#>        country continent lifeExp I.year...1952.  .fitted   .se.fit
#>         <fctr>    <fctr>   <dbl>          <dbl>    <dbl>     <dbl>
#> 1  Afghanistan      Asia  28.801              0 29.90729 0.6639995
#> 2  Afghanistan      Asia  30.332              5 31.28394 0.5799442
#> 3  Afghanistan      Asia  31.997             10 32.66058 0.5026799
#> 4  Afghanistan      Asia  34.020             15 34.03722 0.4358337
#> 5  Afghanistan      Asia  36.088             20 35.41387 0.3848726
#> 6  Afghanistan      Asia  38.438             25 36.79051 0.3566719
#> 7  Afghanistan      Asia  39.854             30 38.16716 0.3566719
#> 8  Afghanistan      Asia  40.822             35 39.54380 0.3848726
#> 9  Afghanistan      Asia  41.674             40 40.92044 0.4358337
#> 10 Afghanistan      Asia  41.763             45 42.29709 0.5026799
#> # ... with 1,694 more rows, and 5 more variables: .resid <dbl>,
#> #   .hat <dbl>, .sigma <dbl>, .cooksd <dbl>, .std.resid <dbl>
```
