Basic care and feeding of data in R
…
Now we can boldly print gapminder to screen! It is a tibble (and also a regular data frame) and the tidyverse provides a nice print method that shows the most important stuff and doesn’t fill up your Console.

## see? it's still a regular data frame, but also a tibble
class(gapminder)
## [1] "tbl_df"     "tbl"        "data.frame"
gapminder
## # A tibble: 1,704 × 6
##        country continent  year lifeExp      pop gdpPercap
##         <fctr>    <fctr> <int>   <dbl>    <int>     <dbl>
## 1  Afghanistan      Asia  1952  28.801  8425333  779.4453
## 2  Afghanistan      Asia  1957  30.332  9240934  820.8530
## 3  Afghanistan      Asia  1962  31.997 10267083  853.1007
## 4  Afghanistan      Asia  1967  34.020 11537966  836.1971
## 5  Afghanistan      Asia  1972  36.088 13079460  739.9811
## 6  Afghanistan      Asia  1977  38.438 14880372  786.1134
## 7  Afghanistan      Asia  1982  39.854 12881816  978.0114
## 8  Afghanistan      Asia  1987  40.822 13867957  852.3959
## 9  Afghanistan      Asia  1992  41.674 16317921  649.3414
## 10 Afghanistan      Asia  1997  41.763 22227415  635.3414
## # ... with 1,694 more rows
…
## 4 Afghanistan      Asia  1967  34.020 11537966  836.1971
## 5 Afghanistan      Asia  1972  36.088 13079460  739.9811
## 6 Afghanistan      Asia  1977  38.438 14880372  786.1134
tail(gapminder)
## # A tibble: 6 × 6
##    country continent  year lifeExp      pop gdpPercap
##     <fctr>    <fctr> <int>   <dbl>    <int>     <dbl>
## 1 Zimbabwe    Africa  1982  60.363  7636524  788.8550
## 2 Zimbabwe    Africa  1987  62.351  9216418  706.1573
## 3 Zimbabwe    Africa  1992  60.377 10704340  693.4208
## 4 Zimbabwe    Africa  1997  46.809 11404948  792.4500
## 5 Zimbabwe    Africa  2002  39.989 11926563  672.0386
## 6 Zimbabwe    Africa  2007  43.487 12311143  469.7093
as_tibble(iris)
## # A tibble: 150 × 5
##    Sepal.Length Sepal.Width Petal.Length Petal.Width Species
##           <dbl>       <dbl>        <dbl>       <dbl>  <fctr>
## 1           5.1         3.5          1.4         0.2  setosa
## 2           4.9         3.0          1.4         0.2  setosa
## 3           4.7         3.2          1.3         0.2  setosa
## 4           4.6         3.1          1.5         0.2  setosa
## 5           5.0         3.6          1.4         0.2  setosa
## 6           5.4         3.9          1.7         0.4  setosa
## 7           4.6         3.4          1.4         0.3  setosa
## 8           5.0         3.4          1.5         0.2  setosa
## 9           4.4         2.9          1.4         0.2  setosa
## 10          4.9         3.1          1.5         0.1  setosa
## # ... with 140 more rows
…
