dplyr functions for a single dataset
…
## Conflicts with tidy packages ----------------------------------------------

## filter(): dplyr, stats
## lag():    dplyr, stats

Create a copy of gapminder

We’re going to make changes to the gapminder tibble. To eliminate any fear that you’re damaging the data that comes with the package, we create an explicit copy of gapminder for our experiments.

(my_gap <- gapminder)

## # A tibble: 1,704 × 6
##        country continent  year lifeExp      pop gdpPercap
##         <fctr>    <fctr> <int>   <dbl>    <int>     <dbl>
## 1  Afghanistan      Asia  1952  28.801  8425333  779.4453
## 2  Afghanistan      Asia  1957  30.332  9240934  820.8530
## 3  Afghanistan      Asia  1962  31.997 10267083  853.1007
## 4  Afghanistan      Asia  1967  34.020 11537966  836.1971
## 5  Afghanistan      Asia  1972  36.088 13079460  739.9811
## 6  Afghanistan      Asia  1977  38.438 14880372  786.1134
## 7  Afghanistan      Asia  1982  39.854 12881816  978.0114
## 8  Afghanistan      Asia  1987  40.822 13867957  852.3959
## 9  Afghanistan      Asia  1992  41.674 16317921  649.3414
## 10 Afghanistan      Asia  1997  41.763 22227415  635.3414
## # ... with 1,694 more rows
…
… versus when we assign the output to an object, possibly overwriting an existing object.

## store the output as an R object
my_precious <- my_gap %>% filter(country == "Canada")

Use mutate() to add new variables

Imagine we wanted to recover each country’s GDP. After all, the Gapminder data has a variable for population and GDP per capita. Let’s multiply them together.

mutate() is a function that defines and inserts new variables into a tibble. You can refer to existing variables by name.

my_gap %>%
  mutate(gdp = pop * gdpPercap)

## # A tibble: 1,704 × 7
##        country continent  year lifeExp      pop gdpPercap         gdp
##         <fctr>    <fctr> <int>   <dbl>    <int>     <dbl>       <dbl>
## 1  Afghanistan      Asia  1952  28.801  8425333  779.4453  6567086330
## 2  Afghanistan      Asia  1957  30.332  9240934  820.8530  7585448670
## 3  Afghanistan      Asia  1962  31.997 10267083  853.1007  8758855797
## 4  Afghanistan      Asia  1967  34.020 11537966  836.1971  9648014150
## 5  Afghanistan      Asia  1972  36.088 13079460  739.9811  9678553274
## 6  Afghanistan      Asia  1977  38.438 14880372  786.1134 11697659231
## 7  Afghanistan      Asia  1982  39.854 12881816  978.0114 12598563401
## 8  Afghanistan      Asia  1987  40.822 13867957  852.3959 11820990309
## 9  Afghanistan      Asia  1992  41.674 16317921  649.3414 10595901589
## 10 Afghanistan      Asia  1997  41.763 22227415  635.3414 14121995875
## # ... with 1,694 more rows
…
##     Min.  1st Qu.   Median     Mean  3rd Qu.     Max. 
## 0.007236 0.061650 0.171500 0.326700 0.446600 9.535000

The relative GDP per capita numbers are, in general, well below 1. We see that most of the countries covered by this dataset have substantially lower GDP per capita, relative to Canada, across the entire time period.

Remember: Trust No One. Including (especially?) yourself. Always try to find a way to check that you’ve done what meant to. Prepare to be horrified.

Use arrange() to row-order data in a principled way

arrange() reorders the rows in a data frame. Imagine you wanted this data ordered by year then country, as opposed to by country then year.

my_gap %>%
  arrange(year, country)

## # A tibble: 1,704 × 7
##        country continent  year lifeExp      pop  gdpPercap gdpPercapRel
##         <fctr>    <fctr> <int>   <dbl>    <int>      <dbl>        <dbl>
## 1  Afghanistan      Asia  1952  28.801  8425333   779.4453   0.06856992
## 2      Albania    Europe  1952  55.230  1282697  1601.0561   0.14084925
## 3      Algeria    Africa  1952  43.077  9279525  2449.0082   0.21544589
## 4       Angola    Africa  1952  30.015  4232095  3520.6103   0.30971764
## 5    Argentina  Americas  1952  62.485 17876956  5911.3151   0.52003442
## 6    Australia   Oceania  1952  69.120  8691212 10039.5956   0.88321046
## 7      Austria    Europe  1952  66.800  6927772  6137.0765   0.53989527
## 8      Bahrain      Asia  1952  50.939   120447  9867.0848   0.86803421
## 9   Bangladesh      Asia  1952  37.484 46886859   684.2442   0.06019482
## 10     Belgium    Europe  1952  68.000  8730405  8343.1051   0.73396559
## # ... with 1,694 more rows

Or maybe you want just the data from 2007, sorted on life expectancy?

my_gap %>%
  filter(year == 2007) %>%
  arrange(lifeExp)

## # A tibble: 142 × 7
##                     country continent  year lifeExp      pop gdpPercap
##                      <fctr>    <fctr> <int>   <dbl>    <int>     <dbl>
## 1                 Swaziland    Africa  2007  39.613  1133066 4513.4806
## 2                Mozambique    Africa  2007  42.082 19951656  823.6856
## 3                    Zambia    Africa  2007  42.384 11746035 1271.2116
## 4              Sierra Leone    Africa  2007  42.568  6144562  862.5408
## 5                   Lesotho    Africa  2007  42.592  2012649 1569.3314
## 6                    Angola    Africa  2007  42.731 12420476 4797.2313
## 7                  Zimbabwe    Africa  2007  43.487 12311143  469.7093
## 8               Afghanistan      Asia  2007  43.828 31889923  974.5803
## 9  Central African Republic    Africa  2007  44.741  4369038  706.0165
## 10                  Liberia    Africa  2007  45.678  3193942  414.5073
## # ... with 132 more rows, and 1 more variables: gdpPercapRel <dbl>

Oh, you’d like to sort on life expectancy in descending order? Then use desc().

my_gap %>%
  filter(year == 2007) %>%
  arrange(desc(lifeExp))

## # A tibble: 142 × 7
##             country continent  year lifeExp       pop gdpPercap
##              <fctr>    <fctr> <int>   <dbl>     <int>     <dbl>
## 1             Japan      Asia  2007  82.603 127467972  31656.07
## 2  Hong Kong, China      Asia  2007  82.208   6980412  39724.98
## 3           Iceland    Europe  2007  81.757    301931  36180.79
## 4       Switzerland    Europe  2007  81.701   7554661  37506.42
## 5         Australia   Oceania  2007  81.235  20434176  34435.37
## 6             Spain    Europe  2007  80.941  40448191  28821.06
## 7            Sweden    Europe  2007  80.884   9031088  33859.75
## 8            Israel      Asia  2007  80.745   6426679  25523.28
## 9            France    Europe  2007  80.657  61083916  30470.02
## 10           Canada  Americas  2007  80.653  33390141  36319.24
## # ... with 132 more rows, and 1 more variables: gdpPercapRel <dbl>

I advise that your analyses NEVER rely on rows or variables being in a specific order. But it’s still true that human beings write the code and the interactive development process can be much nicer if you reorder the rows of your data as you go along. Also, once you are preparing tables for human eyeballs, it is imperative that you step up and take control of row order.

Use rename() to rename variables

When I first cleaned this Gapminder excerpt, I was a camelCase person, but now I’m all about snake_case. So I am vexed by the variable names I chose when I cleaned this data years ago. Let’s rename some variables!

my_gap %>%
  rename(life_exp = lifeExp,
         gdp_percap = gdpPercap,
         gdp_percap_rel = gdpPercapRel)

## # A tibble: 1,704 × 7
##        country continent  year life_exp      pop gdp_percap gdp_percap_rel
##         <fctr>    <fctr> <int>    <dbl>    <int>      <dbl>          <dbl>
## 1  Afghanistan      Asia  1952   28.801  8425333   779.4453     0.06856992
## 2  Afghanistan      Asia  1957   30.332  9240934   820.8530     0.06572108
## 3  Afghanistan      Asia  1962   31.997 10267083   853.1007     0.06336874
## 4  Afghanistan      Asia  1967   34.020 11537966   836.1971     0.05201335
## 5  Afghanistan      Asia  1972   36.088 13079460   739.9811     0.03900679
## 6  Afghanistan      Asia  1977   38.438 14880372   786.1134     0.03558542
## 7  Afghanistan      Asia  1982   39.854 12881816   978.0114     0.04271018
## 8  Afghanistan      Asia  1987   40.822 13867957   852.3959     0.03201305
## 9  Afghanistan      Asia  1992   41.674 16317921   649.3414     0.02464959
## 10 Afghanistan      Asia  1997   41.763 22227415   635.3414     0.02194243
## # ... with 1,694 more rows
…
Grouped mutate

Sometimes you don’t want to collapse the \(n\) rows for each group into one row. You want to keep your groups, but compute within them.

Computing with group-wise summaries

Let’s make a new variable that is the years of life expectancy gained (lost) relative to 1952, for each individual country. We group by country and use mutate() to make a new variable. The first() function extracts the first value from a vector. Notice that first() is operating on the vector of life expectancies within each country group.

my_gap %>% 
  group_by(country) %>% 
  select(country, year, lifeExp) %>% 
  mutate(lifeExp_gain = lifeExp - first(lifeExp)) %>% 
  filter(year < 1963)

## Source: local data frame [426 x 4]
## Groups: country [142]
## 
##        country  year lifeExp lifeExp_gain
##         <fctr> <int>   <dbl>        <dbl>
## 1  Afghanistan  1952  28.801        0.000
## 2  Afghanistan  1957  30.332        1.531
## 3  Afghanistan  1962  31.997        3.196
## 4      Albania  1952  55.230        0.000
## 5      Albania  1957  59.280        4.050
## 6      Albania  1962  64.820        9.590
## 7      Algeria  1952  43.077        0.000
## 8      Algeria  1957  45.685        2.608
## 9      Algeria  1962  48.303        5.226
## 10      Angola  1952  30.015        0.000
## # ... with 416 more rows
…
We see that (min = Afghanistan, max = Japan) is the most frequent result, but Cambodia and Israel pop up at least once each as the min or max, respectively. That table should make you impatient for our upcoming work on tidying and reshaping data! Wouldn’t it be nice to have one row per year?

How did that actually work? First, I store and view a partial that leaves off the filter() statement. All of these operations should be familiar.

asia <- my_gap %>%
  filter(continent == "Asia") %>%
  select(year, country, lifeExp) %>%
  group_by(year)
asia

## Source: local data frame [396 x 3]
## Groups: year [12]
## 
##     year     country lifeExp
##    <int>      <fctr>   <dbl>
## 1   1952 Afghanistan  28.801
## 2   1957 Afghanistan  30.332
## 3   1962 Afghanistan  31.997
## 4   1967 Afghanistan  34.020
## 5   1972 Afghanistan  36.088
## 6   1977 Afghanistan  38.438
## 7   1982 Afghanistan  39.854
## 8   1987 Afghanistan  40.822
## 9   1992 Afghanistan  41.674
## 10  1997 Afghanistan  41.763
## # ... with 386 more rows
…
