…
#### Say hello to the Gapminder tibble

The `gapminder` data frame is a special kind of data frame: a tibble.


```r
gapminder
```

```
## # A tibble: 1,704 × 6
##        country continent  year lifeExp      pop gdpPercap
##         <fctr>    <fctr> <int>   <dbl>    <int>     <dbl>
## 1  Afghanistan      Asia  1952  28.801  8425333  779.4453
## 2  Afghanistan      Asia  1957  30.332  9240934  820.8530
## 3  Afghanistan      Asia  1962  31.997 10267083  853.1007
## 4  Afghanistan      Asia  1967  34.020 11537966  836.1971
## 5  Afghanistan      Asia  1972  36.088 13079460  739.9811
## 6  Afghanistan      Asia  1977  38.438 14880372  786.1134
## 7  Afghanistan      Asia  1982  39.854 12881816  978.0114
## 8  Afghanistan      Asia  1987  40.822 13867957  852.3959
## 9  Afghanistan      Asia  1992  41.674 16317921  649.3414
## 10 Afghanistan      Asia  1997  41.763 22227415  635.3414
## # ... with 1,694 more rows
```
…
```
## [1] "tbl_df"     "tbl"        "data.frame"
```

There will be some functions, like `print()`, that know about tibbles and do something special. There will others that do not, like `summary()`. In which case the regular data frame treatment will happen, because every tibble is also a regular data frame.

To turn any data frame into a tibble use `as_tibble()`:


```r
as_tibble(iris)
```

```
## # A tibble: 150 × 5
##    Sepal.Length Sepal.Width Petal.Length Petal.Width Species
##           <dbl>       <dbl>        <dbl>       <dbl>  <fctr>
## 1           5.1         3.5          1.4         0.2  setosa
## 2           4.9         3.0          1.4         0.2  setosa
## 3           4.7         3.2          1.3         0.2  setosa
## 4           4.6         3.1          1.5         0.2  setosa
## 5           5.0         3.6          1.4         0.2  setosa
## 6           5.4         3.9          1.7         0.4  setosa
## 7           4.6         3.4          1.4         0.3  setosa
## 8           5.0         3.4          1.5         0.2  setosa
## 9           4.4         2.9          1.4         0.2  setosa
## 10          4.9         3.1          1.5         0.1  setosa
## # ... with 140 more rows
```
…
```r
filter(gapminder, country %in% c("Rwanda", "Afghanistan"))
```

```
## # A tibble: 24 × 6
##        country continent  year lifeExp      pop gdpPercap
##         <fctr>    <fctr> <int>   <dbl>    <int>     <dbl>
## 1  Afghanistan      Asia  1952  28.801  8425333  779.4453
## 2  Afghanistan      Asia  1957  30.332  9240934  820.8530
## 3  Afghanistan      Asia  1962  31.997 10267083  853.1007
## 4  Afghanistan      Asia  1967  34.020 11537966  836.1971
## 5  Afghanistan      Asia  1972  36.088 13079460  739.9811
## 6  Afghanistan      Asia  1977  38.438 14880372  786.1134
## 7  Afghanistan      Asia  1982  39.854 12881816  978.0114
## 8  Afghanistan      Asia  1987  40.822 13867957  852.3959
## 9  Afghanistan      Asia  1992  41.674 16317921  649.3414
## 10 Afghanistan      Asia  1997  41.763 22227415  635.3414
## # ... with 14 more rows
```
…
You are probably not impressed yet, but the magic will soon happen.

### Use `select()` to subset the data on variables or columns.

Back to `dplyr` ...

Use `select()` to subset the data on variables or columns. Here's a conventional call:


```r
select(gapminder, year, lifeExp)
```

```
## # A tibble: 1,704 × 2
##     year lifeExp
##    <int>   <dbl>
## 1   1952  28.801
## 2   1957  30.332
## 3   1962  31.997
## 4   1967  34.020
## 5   1972  36.088
## 6   1977  38.438
## 7   1982  39.854
## 8   1987  40.822
## 9   1992  41.674
## 10  1997  41.763
## # ... with 1,694 more rows
```
…
