Getting data in and out of R
…
Default to readr::read_delim() and friends. Use the arguments!

The Gapminder data is too clean and simple to show off the great features of readr, so I encourage you to check out the vignette on column types. There are many variable types that you will be able to parse correctly upon import, thereby eliminating a great deal of post-import fussing.

Compute something worthy of export

We need compute something worth writing to file. Let’s create a country-level summary of maximum life expectancy.

gap_life_exp <- gapminder %>%
  group_by(country, continent) %>% 
  summarise(life_exp = max(lifeExp)) %>% 
  ungroup()
gap_life_exp
## # A tibble: 142 x 3
##        country continent life_exp
##         <fctr>    <fctr>    <dbl>
##  1 Afghanistan      Asia   43.828
##  2     Albania    Europe   76.423
##  3     Algeria    Africa   72.301
##  4      Angola    Africa   42.731
##  5   Argentina  Americas   75.320
##  6   Australia   Oceania   81.235
##  7     Austria    Europe   79.829
##  8     Bahrain      Asia   75.635
##  9  Bangladesh      Asia   64.062
## 10     Belgium    Europe   79.441
## # ... with 132 more rows
…
If you have a data frame AND you have exerted yourself to rationalize the factor levels, you have my blessing to save it to file in a way that will preserve this hard work upon re-import. Use saveRDS().

saveRDS(gap_life_exp, "gap_life_exp.rds")

saveRDS() serializes an R object to a binary file. It’s not a file you will able to open in an editor, diff nicely with Git(Hub), or share with non-R friends. It’s a special purpose, limited use function that I use in specific situations.

The opposite of saveRDS() is readRDS(). You must assign the return value to an object. I highly recommend you assign back to the same name as before. Why confuse yourself?!?

rm(gap_life_exp)
gap_life_exp
## Error in eval(expr, envir, enclos): object 'gap_life_exp' not found
gap_life_exp <- readRDS("gap_life_exp.rds")
gap_life_exp
## # A tibble: 142 x 3
##        country continent life_exp
##         <fctr>    <fctr>    <dbl>
##  1 Afghanistan      Asia   43.828
##  2     Albania    Europe   76.423
##  3     Algeria    Africa   72.301
##  4      Angola    Africa   42.731
##  5   Argentina  Americas   75.320
##  6   Australia   Oceania   81.235
##  7     Austria    Europe   79.829
##  8     Bahrain      Asia   75.635
##  9  Bangladesh      Asia   64.062
## 10     Belgium    Europe   79.441
## # ... with 132 more rows
…
