…
life_exp <- gapminder %>%
  select(country, year, lifeExp)

pop <- gapminder %>%
  arrange(year) %>% 
  select(pop)
  
gdp_percap <- gapminder %>% 
  arrange(pop) %>% 
  select(gdpPercap)

(gapminder_garbage <- bind_cols(life_exp, pop, gdp_percap))
#> # A tibble: 1,704 x 5
#>    country      year lifeExp      pop gdpPercap
#>    <fct>       <int>   <dbl>    <int>     <dbl>
#>  1 Afghanistan  1952    28.8  8425333      880.
#>  2 Afghanistan  1957    30.3  1282697      861.
#>  3 Afghanistan  1962    32.0  9279525     2670.
#>  4 Afghanistan  1967    34.0  4232095     1072.
#>  5 Afghanistan  1972    36.1 17876956     1385.
#>  6 Afghanistan  1977    38.4  8691212     2865.
#>  7 Afghanistan  1982    39.9  6927772     1533.
#>  8 Afghanistan  1987    40.8   120447     1738.
#>  9 Afghanistan  1992    41.7 46886859     3021.
#> 10 Afghanistan  1997    41.8  8730405     1890.
#> # … with 1,694 more rows
…
Visit the [dplyr join cheatsheet](bit001_dplyr-cheatsheet.html) to see concrete examples of all the joins implemented in dplyr, based on comic characters and publishers.

The most recent release of gapminder includes a new data frame, `country_codes`, with country names and ISO codes. Therefore you can also use it to practice joins.


```r
gapminder %>% 
  select(country, continent) %>% 
  group_by(country) %>% 
  slice(1) %>% 
  left_join(country_codes)
#> Joining, by = "country"
#> Warning: Column `country` joining factor and character vector, coercing
#> into character vector
#> # A tibble: 142 x 4
#> # Groups:   country [?]
#>    country     continent iso_alpha iso_num
#>    <chr>       <fct>     <chr>       <int>
#>  1 Afghanistan Asia      AFG             4
#>  2 Albania     Europe    ALB             8
#>  3 Algeria     Africa    DZA            12
#>  4 Angola      Africa    AGO            24
#>  5 Argentina   Americas  ARG            32
#>  6 Australia   Oceania   AUS            36
#>  7 Austria     Europe    AUT            40
#>  8 Bahrain     Asia      BHR            48
#>  9 Bangladesh  Asia      BGD            50
#> 10 Belgium     Europe    BEL            56
#> # … with 132 more rows
```
…
