…
Now we split the data up by country and apply this function. In both approaches, we include `country` AND `continent` in the factors on which to split, so both appear in the result.

First, the `dplyr` way:


```r
gcoefs <- gapminder %>%
  group_by(country, continent) %>% 
  do(le_lin_fit(.)) %>% 
  ungroup()
gcoefs
## # A tibble: 142 × 4
##        country continent intercept     slope
##         <fctr>    <fctr>     <dbl>     <dbl>
## 1  Afghanistan      Asia  29.90729 0.2753287
## 2      Albania    Europe  59.22913 0.3346832
## 3      Algeria    Africa  43.37497 0.5692797
## 4       Angola    Africa  32.12665 0.2093399
## 5    Argentina  Americas  62.68844 0.2317084
## 6    Australia   Oceania  68.40051 0.2277238
## 7      Austria    Europe  66.44846 0.2419923
## 8      Bahrain      Asia  52.74921 0.4675077
## 9   Bangladesh      Asia  36.13549 0.4981308
## 10     Belgium    Europe  67.89192 0.2090846
## # ... with 132 more rows
```
…
