…
Well, we can also apply `mutate` to each group, too. For example, let's calculate the growth in population since the first year on record _for each country_:


```r
gapminder %>% 
    group_by(country) %>% 
    mutate(pop_growth = pop - pop[1])
```

```
## Source: local data frame [1,704 x 7]
## Groups: country [142]
## 
##        country continent  year lifeExp      pop gdpPercap pop_growth
##         <fctr>    <fctr> <int>   <dbl>    <int>     <dbl>      <int>
## 1  Afghanistan      Asia  1952  28.801  8425333  779.4453          0
## 2  Afghanistan      Asia  1957  30.332  9240934  820.8530     815601
## 3  Afghanistan      Asia  1962  31.997 10267083  853.1007    1841750
## 4  Afghanistan      Asia  1967  34.020 11537966  836.1971    3112633
## 5  Afghanistan      Asia  1972  36.088 13079460  739.9811    4654127
## 6  Afghanistan      Asia  1977  38.438 14880372  786.1134    6455039
## 7  Afghanistan      Asia  1982  39.854 12881816  978.0114    4456483
## 8  Afghanistan      Asia  1987  40.822 13867957  852.3959    5442624
## 9  Afghanistan      Asia  1992  41.674 16317921  649.3414    7892588
## 10 Afghanistan      Asia  1997  41.763 22227415  635.3414   13802082
## # ... with 1,694 more rows
```

Notice that `dplyr` has retained the original grouping -- it hasn't pealed back one level of grouping. That's because there's still more than one row for each group!

How about growth compared to `1972`?


```r
gapminder %>% 
    group_by(country) %>% 
    mutate(pop_growth = pop - pop[year==1972])
```

```
## Source: local data frame [1,704 x 7]
## Groups: country [142]
## 
##        country continent  year lifeExp      pop gdpPercap pop_growth
##         <fctr>    <fctr> <int>   <dbl>    <int>     <dbl>      <int>
## 1  Afghanistan      Asia  1952  28.801  8425333  779.4453   -4654127
## 2  Afghanistan      Asia  1957  30.332  9240934  820.8530   -3838526
## 3  Afghanistan      Asia  1962  31.997 10267083  853.1007   -2812377
## 4  Afghanistan      Asia  1967  34.020 11537966  836.1971   -1541494
## 5  Afghanistan      Asia  1972  36.088 13079460  739.9811          0
## 6  Afghanistan      Asia  1977  38.438 14880372  786.1134    1800912
## 7  Afghanistan      Asia  1982  39.854 12881816  978.0114    -197644
## 8  Afghanistan      Asia  1987  40.822 13867957  852.3959     788497
## 9  Afghanistan      Asia  1992  41.674 16317921  649.3414    3238461
## 10 Afghanistan      Asia  1997  41.763 22227415  635.3414    9147955
## # ... with 1,694 more rows
```
…
